[
    {
        "id": "302a0003.32125",
        "type": "tab",
        "label": "Flow 1",
        "disabled": false,
        "info": ""
    },
    {
        "id": "6b46ed66.3b8554",
        "type": "ui_base",
        "theme": {
            "name": "theme-light",
            "lightTheme": {
                "default": "#0094CE",
                "baseColor": "#0094CE",
                "baseFont": "-apple-system,BlinkMacSystemFont,Segoe UI,Roboto,Oxygen-Sans,Ubuntu,Cantarell,Helvetica Neue,sans-serif",
                "edited": true,
                "reset": false
            },
            "darkTheme": {
                "default": "#097479",
                "baseColor": "#097479",
                "baseFont": "-apple-system,BlinkMacSystemFont,Segoe UI,Roboto,Oxygen-Sans,Ubuntu,Cantarell,Helvetica Neue,sans-serif",
                "edited": false
            },
            "customTheme": {
                "name": "Untitled Theme 1",
                "default": "#4B7930",
                "baseColor": "#4B7930",
                "baseFont": "-apple-system,BlinkMacSystemFont,Segoe UI,Roboto,Oxygen-Sans,Ubuntu,Cantarell,Helvetica Neue,sans-serif"
            },
            "themeState": {
                "base-color": {
                    "default": "#0094CE",
                    "value": "#0094CE",
                    "edited": false
                },
                "page-titlebar-backgroundColor": {
                    "value": "#0094CE",
                    "edited": false
                },
                "page-backgroundColor": {
                    "value": "#fafafa",
                    "edited": false
                },
                "page-sidebar-backgroundColor": {
                    "value": "#ffffff",
                    "edited": false
                },
                "group-textColor": {
                    "value": "#1bbfff",
                    "edited": false
                },
                "group-borderColor": {
                    "value": "#ffffff",
                    "edited": false
                },
                "group-backgroundColor": {
                    "value": "#ffffff",
                    "edited": false
                },
                "widget-textColor": {
                    "value": "#111111",
                    "edited": false
                },
                "widget-backgroundColor": {
                    "value": "#0094ce",
                    "edited": false
                },
                "widget-borderColor": {
                    "value": "#ffffff",
                    "edited": false
                },
                "base-font": {
                    "value": "-apple-system,BlinkMacSystemFont,Segoe UI,Roboto,Oxygen-Sans,Ubuntu,Cantarell,Helvetica Neue,sans-serif"
                }
            },
            "angularTheme": {
                "primary": "indigo",
                "accents": "blue",
                "warn": "red",
                "background": "grey",
                "palette": "light"
            }
        },
        "site": {
            "name": "Node-RED Dashboard",
            "hideToolbar": "false",
            "allowSwipe": "false",
            "lockMenu": "false",
            "allowTempTheme": "true",
            "dateFormat": "DD/MM/YYYY",
            "sizes": {
                "sx": 48,
                "sy": 48,
                "gx": 6,
                "gy": 6,
                "cx": 6,
                "cy": 6,
                "px": 0,
                "py": 0
            }
        }
    },
    {
        "id": "7fdfe215.c74ecc",
        "type": "ui_tab",
        "name": "Principal",
        "icon": "dashboard",
        "order": 1,
        "disabled": false,
        "hidden": false
    },
    {
        "id": "36cfd787.cdb8a8",
        "type": "ui_group",
        "name": "fake_sensor",
        "tab": "7fdfe215.c74ecc",
        "order": 1,
        "disp": true,
        "width": "6",
        "collapse": false
    },
    {
        "id": "4a7b7373.69e0ec",
        "type": "azureiothubreceiver",
        "z": "302a0003.32125",
        "name": "Azure IoT Hub Receiver",
        "x": 180,
        "y": 100,
        "wires": [
            [
                "48dd3baa.174cb4"
            ]
        ]
    },
    {
        "id": "6a425d16.743c64",
        "type": "debug",
        "z": "302a0003.32125",
        "name": "",
        "active": true,
        "tosidebar": true,
        "console": false,
        "tostatus": false,
        "complete": "true",
        "targetType": "full",
        "statusVal": "",
        "statusType": "auto",
        "x": 990,
        "y": 100,
        "wires": []
    },
    {
        "id": "48dd3baa.174cb4",
        "type": "function",
        "z": "302a0003.32125",
        "name": "prepare_dashborad_message",
        "func": "\tconst formatedMessage = {};\n\tformatedMessage.sensorId = msg.payload.sensorId;\n\tformatedMessage.payload = msg.payload.value;\n\treturn formatedMessage;",
        "outputs": 1,
        "noerr": 0,
        "initialize": "",
        "finalize": "",
        "libs": [],
        "x": 470,
        "y": 100,
        "wires": [
            [
                "18531313.fd01ad"
            ]
        ]
    },
    {
        "id": "18531313.fd01ad",
        "type": "switch",
        "z": "302a0003.32125",
        "name": "sensor_selector",
        "property": "sensorId",
        "propertyType": "msg",
        "rules": [
            {
                "t": "eq",
                "v": "Temp1",
                "vt": "str"
            },
            {
                "t": "eq",
                "v": "Temp2",
                "vt": "str"
            }
        ],
        "checkall": "true",
        "repair": false,
        "outputs": 2,
        "x": 740,
        "y": 100,
        "wires": [
            [
                "69de44c2.2addbc",
                "6a425d16.743c64"
            ],
            [
                "c4389894.eb9258"
            ]
        ]
    },
    {
        "id": "69de44c2.2addbc",
        "type": "ui_gauge",
        "z": "302a0003.32125",
        "name": "",
        "group": "36cfd787.cdb8a8",
        "order": 0,
        "width": "6",
        "height": "6",
        "gtype": "gage",
        "title": "Temperatura Sensor Temp 1",
        "label": "ºC",
        "format": "{{value}}",
        "min": 0,
        "max": "100",
        "colors": [
            "#00b500",
            "#e6e600",
            "#ca3838"
        ],
        "seg1": "60",
        "seg2": "80",
        "x": 1060,
        "y": 160,
        "wires": []
    },
    {
        "id": "c4389894.eb9258",
        "type": "ui_gauge",
        "z": "302a0003.32125",
        "name": "",
        "group": "36cfd787.cdb8a8",
        "order": 0,
        "width": "6",
        "height": "6",
        "gtype": "gage",
        "title": "Temperatura Sensor Temp 2",
        "label": "ºC",
        "format": "{{value}}",
        "min": 0,
        "max": "100",
        "colors": [
            "#00b500",
            "#e6e600",
            "#ca3838"
        ],
        "seg1": "60",
        "seg2": "80",
        "x": 1060,
        "y": 220,
        "wires": []
    }
]